Final Project Dataset – STA 9750 Submission Material
…
# Combine tables
JOIN_TABLE <- INCOME |>
  left_join(RENT, by = c("GEOID", "year","NAME" )) |>
  rename(zipcode = "GEOID") |>
  select(-NAME)

## optional function to format the column name
format_titles <- function(df){
  colnames(df) <- str_replace_all(colnames(df), "_", " ") |> str_to_title()
  df
}
JOIN_TABLE |> 
  format_titles()

# A tibble: 1,720 × 4
   Zipcode `Household Income`  Year `Monthly Rent`
   <chr>                <dbl> <dbl>          <dbl>
 1 10001                81671  2013           1830
 2 10002                33218  2013            848
 3 10003                92540  2013           1855
 4 10004               129313  2013           2001
 5 10005               124670  2013           2001
 6 10006               119274  2013           2001
 7 10007               216037  2013           2001
 8 10009                59929  2013           1436
 9 10010                97955  2013           2001
10 10011               104238  2013           1911
# ℹ 1,710 more rows
…
